<svg xmlns="http://www.w3.org/2000/svg" xmlns:xlink="http://www.w3.org/1999/xlink" preserveAspectRatio="xMidYMid" width="38" height="44" viewBox="0 0 38 44">
  <defs>
    <style>
      .cls-1 {
        fill: #fff;
        fill-rule: evenodd;
      }
    </style>
  </defs>
  <path d="M33.321,28.055 C30.742,28.055 28.643,25.962 28.643,23.387 C28.643,21.102 31.941,17.044 32.603,16.253 C32.959,15.828 33.683,15.828 34.039,16.253 C34.700,17.044 37.999,21.102 37.999,23.387 C37.999,25.962 35.900,28.055 33.321,28.055 ZM33.321,18.348 C31.982,20.093 30.514,22.385 30.514,23.387 C30.514,24.931 31.773,26.190 33.321,26.190 C34.869,26.190 36.128,24.931 36.128,23.387 C36.128,22.384 34.660,20.091 33.321,18.348 ZM33.321,12.118 C30.742,12.118 28.643,10.025 28.643,7.448 C28.643,5.164 31.941,1.105 32.603,0.315 C32.959,-0.111 33.683,-0.111 34.039,0.315 C34.700,1.105 37.999,5.164 37.999,7.448 C37.999,10.025 35.900,12.118 33.321,12.118 ZM33.321,2.411 C31.982,4.154 30.514,6.447 30.514,7.448 C30.514,8.993 31.773,10.249 33.321,10.249 C34.868,10.249 36.128,8.993 36.128,7.448 C36.128,6.444 34.660,4.153 33.321,2.411 ZM19.158,43.994 C16.579,43.994 14.480,41.901 14.480,39.326 C14.480,37.041 17.779,32.984 18.440,32.193 C18.796,31.768 19.520,31.768 19.876,32.193 C20.538,32.984 23.836,37.041 23.836,39.326 C23.836,41.901 21.737,43.994 19.158,43.994 ZM19.158,34.287 C17.820,36.031 16.352,38.324 16.352,39.326 C16.352,40.871 17.610,42.128 19.158,42.128 C20.706,42.128 21.965,40.871 21.965,39.326 C21.965,38.323 20.497,36.031 19.158,34.287 ZM19.158,28.055 C16.579,28.055 14.480,25.962 14.480,23.387 C14.480,21.102 17.779,17.044 18.440,16.253 C18.796,15.828 19.520,15.828 19.876,16.253 C20.538,17.044 23.836,21.102 23.836,23.387 C23.836,25.962 21.737,28.055 19.158,28.055 ZM19.158,18.348 C17.820,20.093 16.352,22.385 16.352,23.387 C16.352,24.931 17.610,26.190 19.158,26.190 C20.706,26.190 21.965,24.931 21.965,23.387 C21.965,22.384 20.497,20.091 19.158,18.348 ZM19.158,12.118 C16.579,12.118 14.480,10.025 14.480,7.448 C14.480,5.164 17.779,1.105 18.440,0.315 C18.796,-0.111 19.520,-0.111 19.876,0.315 C20.538,1.105 23.836,5.164 23.836,7.448 C23.836,10.025 21.737,12.118 19.158,12.118 ZM19.158,2.411 C17.820,4.154 16.352,6.447 16.352,7.448 C16.352,8.993 17.610,10.249 19.158,10.249 C20.706,10.249 21.965,8.993 21.965,7.448 C21.965,6.444 20.497,4.153 19.158,2.411 ZM4.678,43.994 C2.099,43.994 0.001,41.901 0.001,39.326 C0.001,37.041 3.299,32.984 3.960,32.193 C4.317,31.768 5.040,31.768 5.397,32.193 C6.058,32.984 9.357,37.041 9.357,39.326 C9.357,41.901 7.258,43.994 4.678,43.994 ZM4.678,34.287 C3.340,36.031 1.872,38.324 1.872,39.326 C1.872,40.871 3.131,42.128 4.678,42.128 C6.226,42.128 7.485,40.871 7.485,39.326 C7.485,38.323 6.017,36.031 4.678,34.287 ZM4.678,28.055 C2.099,28.055 0.001,25.962 0.001,23.387 C0.001,21.102 3.299,17.044 3.960,16.253 C4.317,15.828 5.040,15.828 5.397,16.253 C6.058,17.044 9.357,21.102 9.357,23.387 C9.357,25.962 7.258,28.055 4.678,28.055 ZM4.678,18.348 C3.340,20.093 1.872,22.385 1.872,23.387 C1.872,24.931 3.131,26.190 4.678,26.190 C6.226,26.190 7.485,24.931 7.485,23.387 C7.485,22.384 6.017,20.091 4.678,18.348 ZM4.678,12.118 C2.099,12.118 0.001,10.025 0.001,7.448 C0.001,5.164 3.299,1.105 3.960,0.315 C4.317,-0.111 5.040,-0.111 5.397,0.315 C6.058,1.105 9.357,5.164 9.357,7.448 C9.357,10.025 7.258,12.118 4.678,12.118 ZM4.678,2.411 C3.340,4.154 1.872,6.447 1.872,7.448 C1.872,8.993 3.131,10.249 4.678,10.249 C6.226,10.249 7.485,8.993 7.485,7.448 C7.485,6.444 6.017,4.153 4.678,2.411 ZM34.039,32.193 C34.700,32.984 37.999,37.041 37.999,39.326 C37.999,41.901 35.900,43.994 33.321,43.994 C30.742,43.994 28.643,41.901 28.643,39.326 C28.643,37.041 31.941,32.984 32.603,32.193 C32.959,31.768 33.683,31.768 34.039,32.193 ZM33.321,42.128 C34.869,42.128 36.128,40.871 36.128,39.326 C36.128,38.323 34.660,36.031 33.321,34.287 C31.982,36.031 30.514,38.324 30.514,39.326 C30.514,40.871 31.773,42.128 33.321,42.128 Z" class="cls-1"/>
</svg>
