<?xml version="1.0" encoding="utf-8"?>
<!-- Generator: Adobe Illustrator 16.0.2, SVG Export Plug-In . SVG Version: 6.00 Build 0)  -->
<!DOCTYPE svg PUBLIC "-//W3C//DTD SVG 1.1//EN" "http://www.w3.org/Graphics/SVG/1.1/DTD/svg11.dtd">
<svg version="1.1" id="Слой_1" xmlns="http://www.w3.org/2000/svg" xmlns:xlink="http://www.w3.org/1999/xlink" x="0px" y="0px"
	 width="25px" height="24px" viewBox="0 0 25 24" enable-background="new 0 0 25 24" xml:space="preserve">
<path fill="#29AAE2" d="M22.465,15.213c-0.295,0-0.535,0.24-0.535,0.535v2.044c0,1.179-0.959,2.139-2.138,2.139H5.208
	c-1.179,0-2.138-0.96-2.138-2.139v-2.044c0-0.295-0.239-0.535-0.535-0.535C2.239,15.213,2,15.453,2,15.748v2.044
	C2,19.561,3.439,21,5.208,21h14.585C21.561,21,23,19.561,23,17.792v-2.044C23,15.453,22.76,15.213,22.465,15.213z"/>
<path fill="#29AAE2" d="M17.911,10.259c-0.197-0.22-0.535-0.24-0.755-0.043l-4.121,3.683V3.535C13.034,3.24,12.795,3,12.5,3
	c-0.295,0-0.535,0.239-0.535,0.535v10.364l-4.121-3.683c-0.22-0.197-0.558-0.178-0.755,0.042c-0.197,0.22-0.177,0.558,0.042,0.755
	l4.478,4.001c0.254,0.227,0.572,0.34,0.89,0.34s0.637-0.113,0.89-0.34l4.478-4.001C18.088,10.817,18.107,10.479,17.911,10.259z"/>
</svg>
