<?xml version="1.0" encoding="utf-8"?>
<!-- Generator: Adobe Illustrator 16.0.2, SVG Export Plug-In . SVG Version: 6.00 Build 0)  -->
<!DOCTYPE svg PUBLIC "-//W3C//DTD SVG 1.1//EN" "http://www.w3.org/Graphics/SVG/1.1/DTD/svg11.dtd">
<svg version="1.1" id="Слой_1" xmlns="http://www.w3.org/2000/svg" xmlns:xlink="http://www.w3.org/1999/xlink" x="0px" y="0px"
	 width="24px" height="24px" viewBox="0 0 24 24" enable-background="new 0 0 24 24" xml:space="preserve">
<path fill="#888888" d="M12.463,7.02C12.381,6.833,12.2,6.713,12,6.713s-0.381,0.12-0.463,0.307l-3.434,7.854
	c-0.115,0.261,0,0.568,0.256,0.684c0.067,0.031,0.137,0.045,0.206,0.045c0.194,0,0.379-0.115,0.463-0.307L12,8.5l1.873,4.177
	c0.115,0.261,0.413,0.378,0.67,0.261c0.255-0.116,0.37-0.423,0.256-0.684L12.463,7.02z"/>
<path fill="#888888" d="M9.664,11.967c0,0.286,0.227,0.518,0.507,0.518h3.57l1.229,2.813c0.084,0.193,0.269,0.307,0.463,0.307
	c0.069,0,0.139-0.014,0.206-0.045c0.256-0.116,0.37-0.423,0.256-0.684l-1.363-3.119c-0.082-0.187-0.263-0.306-0.463-0.306h-3.898
	C9.891,11.449,9.664,11.681,9.664,11.967z"/>
<path fill="#888888" d="M23.991,8.112l-1.256-6.673c-0.035-0.188-0.17-0.341-0.349-0.397c-0.179-0.057-0.375-0.006-0.507,0.129
	l-2.286,2.337C15.181-0.618,8.31-0.497,4.041,3.866c-2.025,2.07-3.195,4.821-3.29,7.747c-0.01,0.286,0.209,0.526,0.49,0.535
	c0.006,0,0.011,0,0.017,0c0.271,0,0.497-0.221,0.506-0.5c0.088-2.662,1.151-5.165,2.994-7.049c3.995-4.082,10.491-4.081,14.485,0
	c0.19,0.194,0.527,0.194,0.717,0l1.96-2.004l0.935,4.963l-4.856-0.955L20.03,4.56c0.198-0.202,0.198-0.53,0-0.732
	c-0.198-0.203-0.518-0.203-0.717,0L16.606,6.56c-0.133,0.136-0.181,0.335-0.126,0.518c0.055,0.184,0.204,0.32,0.389,0.356
	l6.529,1.284c0.165,0.032,0.335-0.021,0.454-0.143C23.97,8.455,24.022,8.281,23.991,8.112z"/>
<path fill="#888888" d="M22.759,11.853c-0.006,0-0.011,0-0.017,0c-0.271,0-0.497,0.221-0.506,0.5
	c-0.088,2.662-1.151,5.165-2.994,7.049c-3.994,4.082-10.491,4.081-14.485,0c-0.19-0.194-0.527-0.194-0.717,0l-1.96,2.004
	l-0.935-4.963l4.856,0.955l-2.032,2.041c-0.198,0.202-0.198,0.53,0,0.733c0.198,0.202,0.519,0.202,0.717,0l2.708-2.732
	c0.133-0.136,0.181-0.335,0.126-0.518c-0.055-0.183-0.204-0.321-0.389-0.356l-6.528-1.284c-0.165-0.033-0.335,0.021-0.454,0.143
	c-0.119,0.121-0.171,0.295-0.139,0.464l1.256,6.673c0.035,0.188,0.17,0.342,0.349,0.397c0.179,0.056,0.374,0.006,0.507-0.129
	l2.286-2.336c2.143,2.004,4.868,3.006,7.593,3.006c2.883,0,5.765-1.122,7.959-3.365c2.026-2.071,3.194-4.821,3.29-7.747
	C23.258,12.102,23.039,11.863,22.759,11.853z"/>
</svg>
