<svg xmlns="http://www.w3.org/2000/svg" xmlns:xlink="http://www.w3.org/1999/xlink" preserveAspectRatio="xMidYMid" width="21" height="21" viewBox="0 0 21 21">
  <path fill="#000" fill-rule="evenodd" d="M20.697,19.989 L19.990,20.696 L10.344,11.050 L0.697,20.696 L-0.010,19.989 L9.637,10.343 L-0.010,0.696 L0.697,-0.011 L10.344,9.635 L19.990,-0.011 L20.697,0.696 L11.051,10.343 L20.697,19.989 Z"/>
</svg>
