<?xml version="1.0" encoding="utf-8"?>
<!-- Generator: Adobe Illustrator 16.0.2, SVG Export Plug-In . SVG Version: 6.00 Build 0)  -->
<!DOCTYPE svg PUBLIC "-//W3C//DTD SVG 1.1//EN" "http://www.w3.org/Graphics/SVG/1.1/DTD/svg11.dtd">
<svg version="1.1" id="Слой_1" xmlns="http://www.w3.org/2000/svg" xmlns:xlink="http://www.w3.org/1999/xlink" x="0px" y="0px"
	 width="24px" height="24px" viewBox="0 0 24 24" enable-background="new 0 0 24 24" xml:space="preserve">
<path fill="#29AAE2" d="M23.611,10.837c-1.347-1.778-3.092-3.248-5.046-4.251c-1.994-1.025-4.14-1.557-6.379-1.585
	c-0.062-0.002-0.31-0.002-0.372,0C9.575,5.029,7.429,5.56,5.435,6.585c-1.954,1.004-3.699,2.474-5.045,4.251
	c-0.519,0.685-0.519,1.641,0,2.326c1.347,1.777,3.092,3.248,5.045,4.251c1.995,1.025,4.14,1.557,6.379,1.584
	c0.062,0.002,0.31,0.002,0.372,0c2.24-0.028,4.385-0.559,6.379-1.584c1.954-1.004,3.699-2.474,5.046-4.251
	C24.13,12.478,24.13,11.522,23.611,10.837z M5.871,16.515c-1.824-0.938-3.454-2.31-4.711-3.97c-0.243-0.321-0.243-0.769,0-1.09
	c1.258-1.66,2.887-3.033,4.711-3.971c0.519-0.266,1.047-0.496,1.586-0.691C6.07,8.076,5.197,9.935,5.197,12s0.874,3.925,2.26,5.207
	C6.918,17.012,6.389,16.782,5.871,16.515z M12,17.997c-3.213,0-5.827-2.69-5.827-5.997S8.787,6.003,12,6.003s5.827,2.69,5.827,5.997
	C17.827,15.307,15.213,17.997,12,17.997z M22.841,12.545c-1.258,1.66-2.888,3.033-4.712,3.97c-0.518,0.266-1.046,0.495-1.584,0.69
	c1.385-1.283,2.258-3.141,2.258-5.206c0-2.065-0.874-3.925-2.261-5.208c0.539,0.195,1.068,0.426,1.586,0.692
	c1.824,0.938,3.454,2.311,4.712,3.971C23.084,11.776,23.084,12.224,22.841,12.545z"/>
<path fill="#29AAE2" d="M12,9.433c-1.375,0-2.494,1.151-2.494,2.566s1.119,2.566,2.494,2.566s2.494-1.151,2.494-2.566
	S13.375,9.433,12,9.433z M12,13.562c-0.836,0-1.518-0.7-1.518-1.562c0-0.861,0.681-1.562,1.518-1.562s1.517,0.7,1.517,1.562
	C13.518,12.861,12.836,13.562,12,13.562z"/>
</svg>
