<?xml version="1.0" encoding="utf-8"?>
<!-- Generator: Adobe Illustrator 16.0.2, SVG Export Plug-In . SVG Version: 6.00 Build 0)  -->
<!DOCTYPE svg PUBLIC "-//W3C//DTD SVG 1.1//EN" "http://www.w3.org/Graphics/SVG/1.1/DTD/svg11.dtd">
<svg version="1.1" id="Слой_1" xmlns="http://www.w3.org/2000/svg" xmlns:xlink="http://www.w3.org/1999/xlink" x="0px" y="0px"
	 width="5.005px" height="9.01px" viewBox="0.001 -0.005 5.005 9.01" enable-background="new 0.001 -0.005 5.005 9.01"
	 xml:space="preserve">
<path fill="#FFFFFF" d="M3.814,4.5l-3.81,3.895L0.599,9l4.405-4.501L0.599,0L0.003,0.605L3.814,4.5z"/>
</svg>
