<svg xmlns="http://www.w3.org/2000/svg" xmlns:xlink="http://www.w3.org/1999/xlink" preserveAspectRatio="xMidYMid" width="21" height="19" viewBox="0 0 21 19">
  <path fill="#999" fill-rule="evenodd" d="M20.815,14.446 C20.068,13.077 16.795,12.207 13.906,12.041 C13.645,11.758 13.379,11.460 13.108,11.146 C10.624,8.268 9.619,4.085 9.243,1.870 C9.199,1.399 9.149,1.009 9.108,0.719 C9.075,0.488 9.004,0.004 8.509,0.004 C8.351,0.004 8.198,0.073 8.089,0.197 C7.913,0.401 7.939,0.620 7.970,0.873 C8.005,1.165 8.058,1.553 8.134,1.997 C8.345,4.247 8.445,8.531 6.737,11.934 C6.559,12.289 6.381,12.630 6.205,12.954 C3.009,13.897 0.429,15.578 0.052,16.972 C-0.085,17.475 0.034,17.959 0.387,18.334 C0.798,18.770 1.284,18.990 1.830,18.990 C3.342,18.990 5.066,17.284 6.953,13.918 C7.794,13.693 8.628,13.537 9.435,13.454 C9.749,13.422 10.257,13.355 10.570,13.306 C11.431,13.172 12.405,13.118 13.407,13.151 C15.724,15.592 17.618,16.830 19.038,16.830 C19.800,16.829 20.431,16.454 20.814,15.769 C21.049,15.346 21.050,14.875 20.815,14.446 ZM19.839,14.993 C19.887,15.082 19.887,15.129 19.840,15.214 C19.655,15.546 19.392,15.700 19.014,15.700 L19.013,15.700 C18.126,15.700 16.761,14.849 15.128,13.288 C17.656,13.610 19.507,14.386 19.839,14.993 ZM5.349,14.429 C3.999,16.591 2.706,17.858 1.830,17.858 C1.593,17.858 1.391,17.761 1.193,17.551 C1.112,17.467 1.094,17.393 1.127,17.272 C1.322,16.554 2.958,15.324 5.349,14.429 L5.349,14.429 ZM7.661,12.588 C7.684,12.542 7.707,12.495 7.731,12.448 C8.568,10.780 9.088,8.779 9.279,6.486 C10.048,8.666 11.050,10.480 12.267,11.892 C12.303,11.933 12.340,11.975 12.376,12.018 C11.673,12.035 11.011,12.094 10.398,12.190 C10.101,12.236 9.619,12.299 9.321,12.331 C8.779,12.385 8.223,12.471 7.661,12.588 Z"/>
</svg>
