<?xml version="1.0" encoding="utf-8"?>
<!-- Generator: Adobe Illustrator 16.0.0, SVG Export Plug-In . SVG Version: 6.00 Build 0)  -->
<svg version="1.2" baseProfile="tiny" id="Shape_10_copy_1_"
	 xmlns="http://www.w3.org/2000/svg" xmlns:xlink="http://www.w3.org/1999/xlink" x="0px" y="0px" width="132px" height="178px"
	 viewBox="0 0 132 178" xml:space="preserve">
<g id="Shape_10_copy">
	<path fill-rule="evenodd" fill="#FFFFFF" d="M0.896,87.343c0-33.171,14.492-64.764,39.758-86.676l-0.592-0.681
		C14.597,22.07-0.007,53.91-0.007,87.343c0,34.804,15.609,67.49,42.826,89.674l0.571-0.698
		C16.384,154.309,0.896,121.876,0.896,87.343z M55.87,87.632c0-24.846,10.855-48.511,29.781-64.924l-0.593-0.68
		c-19.123,16.585-30.09,40.495-30.09,65.604c0,26.136,11.722,50.683,32.162,67.342l0.57-0.697
		C67.472,137.788,55.87,113.497,55.87,87.632z M110.844,87.92c0-16.521,7.218-32.254,19.802-43.169l-0.593-0.68
		c-12.781,11.085-20.111,27.067-20.111,43.849c0,17.471,7.835,33.876,21.496,45.011l0.57-0.696
		C118.559,121.271,110.844,105.118,110.844,87.92z"/>
</g>
</svg>
